Recognizer:,NDOLLAR, StartTime(ms):,28357814

Testing:,within-user,Matching method:,Protractor,Rotation invariance:,False,Rotation bound:,45,1D Threshold:,0.3,Do start angle comparison:,True,Start angle index:,8,Start angle threshold:,30,Do match only same number of strokes:,True,Test for 1D gestures:,True,UseUniformScaling:,True

Subject,Speed,Correct?,NumTrain,Tested,Character,ActualComparisons,TotalComparisons,Is1D,1stCorrect,Pts,Ms,NumStrokes,RecoDuration,Angle,:,(NBestNames),[NBestScores]
test-test,test,0,1,'rightAngle,'rightAngle,0,1,False,-1,31,671,1,94,0.0°,:,(),[-1.000]
test-test,test,0,1,'rightAngle2,'rightAngle,0,1,False,-1,39,952,1,0,0.0°,:,(),[-1.000]
test-test,test,0,1,'rightAngle,'rightAngle,0,1,False,-1,31,671,1,0,0.0°,:,(),[-1.000]
test-test,test,0,1,'rightAngle,'rightAngle,0,1,False,-1,31,671,1,0,0.0°,:,(),[-1.000]
test-test,test,0,1,'rightAngle,'rightAngle,0,1,False,-1,31,671,1,0,0.0°,:,(),[-1.000]
test-test,test,0,1,'rightAngle2,'rightAngle,0,1,False,-1,39,952,1,0,0.0°,:,(),[-1.000]
test-test,test,0,1,'rightAngle2,'rightAngle,0,1,False,-1,39,952,1,0,0.0°,:,(),[-1.000]
test-test,test,0,1,'rightAngle2,'rightAngle,0,1,False,-1,39,952,1,0,0.0°,:,(),[-1.000]
test-test,test,0,1,'rightAngle,'rightAngle,0,1,False,-1,31,671,1,0,0.0°,:,(),[-1.000]
test-test,test,0,1,'rightAngle2,'rightAngle,0,1,False,-1,39,952,1,0,0.0°,:,(),[-1.000]
test-test,test,0,1,'rightAngle,'rightAngle,0,1,False,-1,31,671,1,0,0.0°,:,(),[-1.000]
test-test,test,0,1,'rightAngle2,'rightAngle,0,1,False,-1,39,952,1,0,0.0°,:,(),[-1.000]
test-test,test,0,1,'rightAngle2,'rightAngle,0,1,False,-1,39,952,1,0,0.0°,:,(),[-1.000]
test-test,test,0,1,'rightAngle2,'rightAngle,0,1,False,-1,39,952,1,0,0.0°,:,(),[-1.000]
test-test,test,0,1,'rightAngle2,'rightAngle,0,1,False,-1,39,952,1,0,0.0°,:,(),[-1.000]
test-test,test,0,1,'rightAngle2,'rightAngle,0,1,False,-1,39,952,1,0,0.0°,:,(),[-1.000]
test-test,test,0,1,'rightAngle,'rightAngle,0,1,False,-1,31,671,1,0,0.0°,:,(),[-1.000]
test-test,test,0,1,'rightAngle2,'rightAngle,0,1,False,-1,39,952,1,0,0.0°,:,(),[-1.000]
test-test,test,0,1,'rightAngle2,'rightAngle,0,1,False,-1,39,952,1,0,0.0°,:,(),[-1.000]
test-test,test,0,1,'rightAngle2,'rightAngle,0,1,False,-1,39,952,1,0,0.0°,:,(),[-1.000]
test-test,test,0,1,'rightAngle,'rightAngle,0,1,False,-1,31,671,1,0,0.0°,:,(),[-1.000]
test-test,test,0,1,'rightAngle2,'rightAngle,0,1,False,-1,39,952,1,0,0.0°,:,(),[-1.000]
test-test,test,0,1,'rightAngle2,'rightAngle,0,1,False,-1,39,952,1,0,0.0°,:,(),[-1.000]
test-test,test,0,1,'rightAngle,'rightAngle,0,1,False,-1,31,671,1,187,0.0°,:,(),[-1.000]
test-test,test,0,1,'rightAngle2,'rightAngle,0,1,False,-1,39,952,1,0,0.0°,:,(),[-1.000]
test-test,test,0,1,'rightAngle2,'rightAngle,0,1,False,-1,39,952,1,0,0.0°,:,(),[-1.000]
test-test,test,0,1,'rightAngle2,'rightAngle,0,1,False,-1,39,952,1,0,0.0°,:,(),[-1.000]
test-test,test,0,1,'rightAngle2,'rightAngle,0,1,False,-1,39,952,1,0,0.0°,:,(),[-1.000]
test-test,test,0,1,'rightAngle,'rightAngle,0,1,False,-1,31,671,1,0,0.0°,:,(),[-1.000]
test-test,test,0,1,'rightAngle2,'rightAngle,0,1,False,-1,39,952,1,0,0.0°,:,(),[-1.000]
test-test,test,0,1,'rightAngle2,'rightAngle,0,1,False,-1,39,952,1,0,0.0°,:,(),[-1.000]
test-test,test,0,1,'rightAngle,'rightAngle,0,1,False,-1,31,671,1,0,0.0°,:,(),[-1.000]
test-test,test,0,1,'rightAngle2,'rightAngle,0,1,False,-1,39,952,1,0,0.0°,:,(),[-1.000]
test-test,test,0,1,'rightAngle,'rightAngle,0,1,False,-1,31,671,1,0,0.0°,:,(),[-1.000]
test-test,test,0,1,'rightAngle,'rightAngle,0,1,False,-1,31,671,1,0,0.0°,:,(),[-1.000]
test-test,test,0,1,'rightAngle,'rightAngle,0,1,False,-1,31,671,1,0,0.0°,:,(),[-1.000]
test-test,test,0,1,'rightAngle,'rightAngle,0,1,False,-1,31,671,1,0,0.0°,:,(),[-1.000]
test-test,test,0,1,'rightAngle,'rightAngle,0,1,False,-1,31,671,1,0,0.0°,:,(),[-1.000]
test-test,test,0,1,'rightAngle,'rightAngle,0,1,False,-1,31,671,1,0,0.0°,:,(),[-1.000]
test-test,test,0,1,'rightAngle,'rightAngle,0,1,False,-1,31,671,1,0,0.0°,:,(),[-1.000]
test-test,test,0,1,'rightAngle2,'rightAngle,0,1,False,-1,39,952,1,0,0.0°,:,(),[-1.000]
test-test,test,0,1,'rightAngle,'rightAngle,0,1,False,-1,31,671,1,0,0.0°,:,(),[-1.000]
test-test,test,0,1,'rightAngle2,'rightAngle,0,1,False,-1,39,952,1,0,0.0°,:,(),[-1.000]
test-test,test,0,1,'rightAngle,'rightAngle,0,1,False,-1,31,671,1,0,0.0°,:,(),[-1.000]
test-test,test,0,1,'rightAngle,'rightAngle,0,1,False,-1,31,671,1,0,0.0°,:,(),[-1.000]
test-test,test,0,1,'rightAngle,'rightAngle,0,1,False,-1,31,671,1,0,0.0°,:,(),[-1.000]
test-test,test,0,1,'rightAngle2,'rightAngle,0,1,False,-1,39,952,1,203,0.0°,:,(),[-1.000]
test-test,test,0,1,'rightAngle,'rightAngle,0,1,False,-1,31,671,1,0,0.0°,:,(),[-1.000]
test-test,test,0,1,'rightAngle2,'rightAngle,0,1,False,-1,39,952,1,0,0.0°,:,(),[-1.000]
test-test,test,0,1,'rightAngle,'rightAngle,0,1,False,-1,31,671,1,0,0.0°,:,(),[-1.000]
test-test,test,0,1,'rightAngle,'rightAngle,0,1,False,-1,31,671,1,0,0.0°,:,(),[-1.000]
test-test,test,0,1,'rightAngle,'rightAngle,0,1,False,-1,31,671,1,0,0.0°,:,(),[-1.000]
test-test,test,0,1,'rightAngle2,'rightAngle,0,1,False,-1,39,952,1,0,0.0°,:,(),[-1.000]
test-test,test,0,1,'rightAngle2,'rightAngle,0,1,False,-1,39,952,1,0,0.0°,:,(),[-1.000]
test-test,test,0,1,'rightAngle,'rightAngle,0,1,False,-1,31,671,1,0,0.0°,:,(),[-1.000]
test-test,test,0,1,'rightAngle2,'rightAngle,0,1,False,-1,39,952,1,0,0.0°,:,(),[-1.000]
test-test,test,0,1,'rightAngle,'rightAngle,0,1,False,-1,31,671,1,0,0.0°,:,(),[-1.000]
test-test,test,0,1,'rightAngle2,'rightAngle,0,1,False,-1,39,952,1,0,0.0°,:,(),[-1.000]
test-test,test,0,1,'rightAngle,'rightAngle,0,1,False,-1,31,671,1,0,0.0°,:,(),[-1.000]
test-test,test,0,1,'rightAngle2,'rightAngle,0,1,False,-1,39,952,1,0,0.0°,:,(),[-1.000]
test-test,test,0,1,'rightAngle,'rightAngle,0,1,False,-1,31,671,1,0,0.0°,:,(),[-1.000]
test-test,test,0,1,'rightAngle,'rightAngle,0,1,False,-1,31,671,1,0,0.0°,:,(),[-1.000]
test-test,test,0,1,'rightAngle,'rightAngle,0,1,False,-1,31,671,1,0,0.0°,:,(),[-1.000]
test-test,test,0,1,'rightAngle,'rightAngle,0,1,False,-1,31,671,1,0,0.0°,:,(),[-1.000]
test-test,test,0,1,'rightAngle2,'rightAngle,0,1,False,-1,39,952,1,0,0.0°,:,(),[-1.000]
test-test,test,0,1,'rightAngle2,'rightAngle,0,1,False,-1,39,952,1,0,0.0°,:,(),[-1.000]
test-test,test,0,1,'rightAngle,'rightAngle,0,1,False,-1,31,671,1,0,0.0°,:,(),[-1.000]
test-test,test,0,1,'rightAngle2,'rightAngle,0,1,False,-1,39,952,1,0,0.0°,:,(),[-1.000]
test-test,test,0,1,'rightAngle,'rightAngle,0,1,False,-1,31,671,1,0,0.0°,:,(),[-1.000]
test-test,test,0,1,'rightAngle2,'rightAngle,0,1,False,-1,39,952,1,203,0.0°,:,(),[-1.000]
test-test,test,0,1,'rightAngle2,'rightAngle,0,1,False,-1,39,952,1,0,0.0°,:,(),[-1.000]
test-test,test,0,1,'rightAngle2,'rightAngle,0,1,False,-1,39,952,1,0,0.0°,:,(),[-1.000]
test-test,test,0,1,'rightAngle2,'rightAngle,0,1,False,-1,39,952,1,0,0.0°,:,(),[-1.000]
test-test,test,0,1,'rightAngle2,'rightAngle,0,1,False,-1,39,952,1,0,0.0°,:,(),[-1.000]
test-test,test,0,1,'rightAngle,'rightAngle,0,1,False,-1,31,671,1,0,0.0°,:,(),[-1.000]
test-test,test,0,1,'rightAngle,'rightAngle,0,1,False,-1,31,671,1,0,0.0°,:,(),[-1.000]
test-test,test,0,1,'rightAngle,'rightAngle,0,1,False,-1,31,671,1,0,0.0°,:,(),[-1.000]
test-test,test,0,1,'rightAngle,'rightAngle,0,1,False,-1,31,671,1,0,0.0°,:,(),[-1.000]
test-test,test,0,1,'rightAngle,'rightAngle,0,1,False,-1,31,671,1,0,0.0°,:,(),[-1.000]
test-test,test,0,1,'rightAngle,'rightAngle,0,1,False,-1,31,671,1,0,0.0°,:,(),[-1.000]
test-test,test,0,1,'rightAngle,'rightAngle,0,1,False,-1,31,671,1,0,0.0°,:,(),[-1.000]
test-test,test,0,1,'rightAngle2,'rightAngle,0,1,False,-1,39,952,1,0,0.0°,:,(),[-1.000]
test-test,test,0,1,'rightAngle,'rightAngle,0,1,False,-1,31,671,1,0,0.0°,:,(),[-1.000]
test-test,test,0,1,'rightAngle,'rightAngle,0,1,False,-1,31,671,1,0,0.0°,:,(),[-1.000]
test-test,test,0,1,'rightAngle,'rightAngle,0,1,False,-1,31,671,1,0,0.0°,:,(),[-1.000]
test-test,test,0,1,'rightAngle2,'rightAngle,0,1,False,-1,39,952,1,0,0.0°,:,(),[-1.000]
test-test,test,0,1,'rightAngle2,'rightAngle,0,1,False,-1,39,952,1,0,0.0°,:,(),[-1.000]
test-test,test,0,1,'rightAngle,'rightAngle,0,1,False,-1,31,671,1,0,0.0°,:,(),[-1.000]
test-test,test,0,1,'rightAngle,'rightAngle,0,1,False,-1,31,671,1,0,0.0°,:,(),[-1.000]
test-test,test,0,1,'rightAngle2,'rightAngle,0,1,False,-1,39,952,1,0,0.0°,:,(),[-1.000]
test-test,test,0,1,'rightAngle2,'rightAngle,0,1,False,-1,39,952,1,0,0.0°,:,(),[-1.000]
test-test,test,0,1,'rightAngle2,'rightAngle,0,1,False,-1,39,952,1,0,0.0°,:,(),[-1.000]
test-test,test,0,1,'rightAngle2,'rightAngle,0,1,False,-1,39,952,1,202,0.0°,:,(),[-1.000]
test-test,test,0,1,'rightAngle,'rightAngle,0,1,False,-1,31,671,1,0,0.0°,:,(),[-1.000]
test-test,test,0,1,'rightAngle,'rightAngle,0,1,False,-1,31,671,1,0,0.0°,:,(),[-1.000]
test-test,test,0,1,'rightAngle,'rightAngle,0,1,False,-1,31,671,1,0,0.0°,:,(),[-1.000]
test-test,test,0,1,'rightAngle,'rightAngle,0,1,False,-1,31,671,1,0,0.0°,:,(),[-1.000]
test-test,test,0,1,'rightAngle2,'rightAngle,0,1,False,-1,39,952,1,0,0.0°,:,(),[-1.000]
test-test,test,0,1,'rightAngle2,'rightAngle,0,1,False,-1,39,952,1,0,0.0°,:,(),[-1.000]
test-test,test,0,1,'rightAngle2,'rightAngle,0,1,False,-1,39,952,1,0,0.0°,:,(),[-1.000]

EndTime(ms):,28358984, Minutes:,0.02
